%YAML 1.1
%TAG !u! tag:unity3d.com,2011:
--- !u!114 &11400000
MonoBehaviour:
  m_ObjectHideFlags: 0
  m_CorrespondingSourceObject: {fileID: 0}
  m_PrefabInstance: {fileID: 0}
  m_PrefabAsset: {fileID: 0}
  m_GameObject: {fileID: 0}
  m_Enabled: 1
  m_EditorHideFlags: 0
  m_Script: {fileID: 11500000, guid: b7acc17bff087304d947b89bbc6b3c65, type: 3}
  m_Name: Rockets
  m_EditorClassIdentifier: 
  _ammo: 1
  ammoCap: 5
  _maxDamage: 100
  _maxLaunchForce: 40
  _minLaunchForce: 15
  mat: {fileID: 2100000, guid: 0b1ea38d9a24c174a9c7ae268eebcf8f, type: 2}
  _shellType: {fileID: 0}
